年份,总站点数,夏,秋
1969.0,12.5,9.38,6.25
1970.0,9.38,9.38,3.12
1971.0,12.5,6.25,6.25
1972.0,15.62,9.38,6.25
1973.0,9.38,9.38,0.0
1974.0,21.88,6.25,18.75
1975.0,6.25,0.0,3.12
1976.0,15.62,15.62,0.0
1977.0,9.38,6.25,3.12
1978.0,3.12,0.0,3.12
1979.0,12.5,6.25,6.25
1980.0,3.12,0.0,0.0
1981.0,21.88,9.38,12.5
1982.0,6.25,0.0,6.25
1983.0,15.62,6.25,9.38
1984.0,9.38,9.38,0.0
1985.0,9.38,6.25,6.25
1986.0,9.38,6.25,3.12
1987.0,18.75,6.25,12.5
1988.0,12.5,6.25,3.12
1989.0,6.25,3.12,3.12
1990.0,6.25,0.0,6.25
1991.0,15.62,6.25,9.38
1992.0,9.38,9.38,0.0
1993.0,9.38,0.0,9.38
1994.0,3.12,0.0,3.12
1995.0,15.62,0.0,15.62
1996.0,9.38,9.38,0.0
1997.0,6.25,3.12,3.12
1998.0,3.12,0.0,0.0
1999.0,12.5,12.5,0.0
2000.0,3.12,0.0,3.12
2001.0,15.62,9.38,9.38
2002.0,9.38,3.12,6.25
2003.0,0.0,0.0,0.0
2004.0,12.5,9.38,0.0
2005.0,12.5,6.25,6.25
2006.0,3.12,0.0,3.12
2007.0,12.5,9.38,3.12
2008.0,18.75,3.12,15.62
2009.0,6.25,3.12,6.25
2010.0,12.5,9.38,0.0
2011.0,3.12,0.0,3.12
2012.0,15.62,6.25,9.38
2013.0,12.5,9.38,3.12
2014.0,3.12,0.0,0.0
2015.0,12.5,9.38,6.25
2016.0,3.12,3.12,0.0
