年份,总天数,夏,秋
1969.0,6.38,3.03,3.34
1970.0,4.66,3.03,1.62
1971.0,4.94,2.38,2.56
1972.0,9.09,7.47,1.62
1973.0,3.41,2.72,0.69
1974.0,7.75,2.47,5.28
1975.0,3.31,0.0,1.19
1976.0,5.25,5.25,0.0
1977.0,6.53,3.47,3.06
1978.0,1.44,0.66,0.78
1979.0,3.44,1.62,1.81
1980.0,1.0,0.0,0.0
1981.0,6.72,2.94,3.78
1982.0,1.44,0.0,1.44
1983.0,5.31,1.53,3.78
1984.0,5.19,2.56,1.97
1985.0,3.19,1.72,1.47
1986.0,3.28,2.16,1.12
1987.0,7.84,2.06,5.78
1988.0,3.47,1.62,0.84
1989.0,2.66,1.5,1.16
1990.0,1.66,0.0,1.66
1991.0,5.03,2.66,2.38
1992.0,2.34,2.34,0.0
1993.0,3.41,0.0,3.41
1994.0,1.09,0.0,1.09
1995.0,4.03,0.0,4.03
1996.0,2.81,2.81,0.0
1997.0,2.75,2.0,0.75
1998.0,2.66,0.69,0.0
1999.0,4.28,4.28,0.0
2000.0,0.81,0.0,0.81
2001.0,5.78,2.91,2.88
2002.0,3.0,1.16,1.84
2003.0,0.62,0.0,0.62
2004.0,6.09,3.22,0.69
2005.0,5.25,3.12,2.12
2006.0,1.47,0.66,0.81
2007.0,6.0,3.19,1.62
2008.0,6.03,0.78,5.25
2009.0,3.47,1.03,2.44
2010.0,5.44,3.25,0.0
2011.0,1.06,0.0,1.06
2012.0,8.19,3.88,4.31
2013.0,4.03,2.56,1.47
2014.0,1.22,0.0,0.0
2015.0,4.75,2.91,1.84
2016.0,1.0,1.0,0.0
